…
``` r
# specify document type = "conference-paper", rows = 1000

my_url <- make_search_url(query = "neural network", 
                          how = "all",
                          dc_type = "conference-paper",
                          rows = 1000)

get_papers_count(my_url)
#> [1] 2687
# 2661
# 2687
onepetro_page_to_dataframe(my_url)
#> # A tibble: 1,000 x 6
#>                                                      title_data
#>                                                           <chr>
#>  1                          Deconvolution Using Neural Networks
#>  2                                      Neural Networks And AVO
#>  3                     Neural Network Stacking Velocity Picking
#>  4                    First Break Picking Using Neural Networks
#>  5             Neural Networks And Paper Seismic Interpretation
#>  6  Seismic Principal Components Analysis Using Neural Networks
#>  7        Estimation of Welding Distortion Using Neural Network
#>  8      Artificial Intelligence I Neural Networks In Geophysics
#>  9 Reservoir Characterization Using Feedforward Neural Networks
#> 10          Seismic Attribute Calibration Using Neural Networks
#> # ... with 990 more rows, and 5 more variables: paper_id <chr>,
#> #   source <chr>, type <chr>, year <chr>, author1_data <chr>
```
…
``` r
# specify document type = "journal-paper", rows = 1000

my_url <- make_search_url(query = "neural network", 
                          how = "all",
                          dc_type = "journal-paper",
                          rows = 1000)

get_papers_count(my_url)
#> [1] 304
# 303
# 304
onepetro_page_to_dataframe(my_url)
#> # A tibble: 304 x 6
#>                                                                     title_data
#>                                                                          <chr>
#>  1                   Implicit Approximation of Neural Network and Applications
#>  2                Artificial Neural Networks Identify Restimulation Candidates
#>  3                                    Drill-Bit Diagnosis With Neural Networks
#>  4                 Neural Networks for Predictive Control of Drilling Dynamics
#>  5          An Artificial Neural Network Based Relative Permeability Predictor
#>  6 Characterize Submarine Channel Reservoirs: A Neural- Network-Based Approach
#>  7             Application of Artificial Neural Network to Pump Card Diagnosis
#>  8        Application of Artificial Neural Networks to Downhole Fluid Analysis
#>  9                Neural Network Approach Predicts U.S. Natural Gas Production
#> 10           Pseudodensity Log Generation by Use of Artificial Neural Networks
#> # ... with 294 more rows, and 5 more variables: paper_id <chr>,
#> #   source <chr>, type <chr>, year <chr>, author1_data <chr>
```
…
my_url_1 <- make_search_url(query = "neural network", 
                          how = "all", 
                          dc_type = "conference-paper",
                          start = 0,
                          rows  = 1000)

get_papers_count(my_url_1)
#> [1] 2687

page_1 <- read_onepetro(my_url_1)
htm_1 <- paste(outdir, "1000_conference.html", sep = "/")
xml2::write_html(page_1, file = htm_1)
onepetro_page_to_dataframe(htm_1)
#> # A tibble: 1,000 x 6
#>                                                      title_data
#>                                                           <chr>
#>  1                          Deconvolution Using Neural Networks
#>  2                                      Neural Networks And AVO
#>  3                     Neural Network Stacking Velocity Picking
#>  4                    First Break Picking Using Neural Networks
#>  5             Neural Networks And Paper Seismic Interpretation
#>  6  Seismic Principal Components Analysis Using Neural Networks
#>  7        Estimation of Welding Distortion Using Neural Network
#>  8      Artificial Intelligence I Neural Networks In Geophysics
#>  9 Reservoir Characterization Using Feedforward Neural Networks
#> 10          Seismic Attribute Calibration Using Neural Networks
#> # ... with 990 more rows, and 5 more variables: paper_id <chr>,
#> #   source <chr>, type <chr>, year <chr>, author1_data <chr>
```

#### 3.2 Collect second set of 1000 rows

``` r
my_url_2 <- make_search_url(query = "neural network", 
                          how = "all", 
                          dc_type = "conference-paper",
                          start = 1000,
                          rows  = 1000)

page_2 <- read_onepetro(my_url_2)
htm_2 <- paste(outdir, "2000_conference.html", sep = "/")
xml2::write_html(page_2, file = htm_2)
onepetro_page_to_dataframe(htm_2)
#> # A tibble: 1,000 x 6
#>                                                                     title_data
#>                                                                          <chr>
#>  1 Pore Pressure Prediction Using High Resolution Velocity And Acoustic Impeda
#>  2 Single Gas Flow Prediction through Chokes using Artificial Intelligence Tec
#>  3 A Production Performance Prediction and Field Development Tool for Coalbed 
#>  4   Rock Mechanical Properties of Shallow Unconsolidated Sandstone Formations
#>  5 Challenges in Using Operational Data for Reliable Wind Turbine Condition Mo
#>  6             Production Optimization Strategy Using Hybrid Genetic Algorithm
#>  7 Modelling Pipeline and Choke Optimization for Improved Gas Field Production
#>  8 Estimating Saturation Changes from 4D Seismic: A Case Study from Malay Basi
#>  9               Automated Reservoir Surveillance through Data Mining Software
#> 10                            Improvements to Computer Based Fault Extractions
#> # ... with 990 more rows, and 5 more variables: paper_id <chr>,
#> #   source <chr>, type <chr>, year <chr>, author1_data <chr>
```

#### 3.3 Collect remaining set of 1000 rows

``` r
my_url_3 <- make_search_url(query = "neural network", 
                          how = "all", 
                          dc_type = "conference-paper",
                          start = 2000,
                          rows  = 1000)

page_3 <- read_onepetro(my_url_3)
htm_3 <- paste(outdir, "3000_conference.html", sep = "/")
xml2::write_html(page_3, file = htm_3)
onepetro_page_to_dataframe(htm_3)
#> # A tibble: 687 x 6
#>                                                                     title_data
#>                                                                          <chr>
#>  1 Cyclic Behavior of Laterally Loaded Piles in Soils With Variable Properties
#>  2 A New Approach to Predict Failure Parameters of Carbonate Rocks using Artif
#>  3 Seismic to Simulation Fracture Characterization of a Green Carbonate Reserv
#>  4                                           Advanced Streaming Data Cleansing
#>  5                Wave Height Forecast Using Self-Organization Algorithm Model
#>  6          The Role Of Ocean Engineers In Japanese Ocean Measurement Research
#>  7                  Field Evaluation Of A Hydrate Inhibition Monitoring System
#>  8 Data-Driven Brittleness Index Prediction From Elemental Spectroscopy and Pe
#>  9 Maximize the placement of wells and production in unconventional reservoirs
#> 10     Integrity Monitoring of Offshore Platforms Using Artificial Neural Nets
#> # ... with 677 more rows, and 5 more variables: paper_id <chr>,
#> #   source <chr>, type <chr>, year <chr>, author1_data <chr>
```
…
#>  8                                    NACE International    45
#>  9                 National Energy Technology Laboratory     8
#> 10                     Offshore Mediterranean Conference    44
#> 11                        Offshore Technology Conference   506
#> 12                                  Oil Industry Journal    14
#> 13                           Petroleum Society of Canada   396
#> 14                    Pipeline Simulation Interest Group     2
#> 15                  Society of Exploration Geophysicists    75
#> 16                        Society of Petroleum Engineers 10078
#> 17      Society of Petrophysicists and Well-Log Analysts   209
#> 18                      Society of Underwater Technology    12
#> 19        Unconventional Resources Technology Conference    60
#> 20                              World Petroleum Congress    77
summary_by_dates(result)
#> # A tibble: 76 x 2
#>          name value
#>         <chr> <dbl>
#>  1 Since 2017   347
#>  2 Since 2016   913
#>  3 Since 2015  1462
#>  4 Since 2014  2019
#>  5 Since 2013  2530
#>  6 Since 2012  3044
#>  7 Since 2011  3497
#>  8 Since 2010  4023
#>  9 Since 2009  4454
#> 10 Since 2008  4865
#> # ... with 66 more rows
summary_by_publications(result)
#> # A tibble: 575 x 2
#>                                                                 name value
#>                                                                <chr> <dbl>
#>  1           10th North American Conference on Multiphase Technology     1
#>  2                                     10th World Petroleum Congress     1
#>  3                                                11th ISRM Congress     1
#>  4                                     11th World Petroleum Congress     4
#>  5                                                12th ISRM Congress     1
#>  6 12th International Conference on Multiphase Production Technology     2
#>  7                                     12th World Petroleum Congress     3
#>  8                13th ISRM International Congress of Rock Mechanics     1
#>  9 13th International Conference on Multiphase Production Technology     1
#> 10                                     13th World Petroleum Congress     3
#> # ... with 565 more rows
```
…
summary_by_doctype(result)
#> # A tibble: 8 x 2
#>               name value
#>              <chr> <dbl>
#> 1          Chapter    60
#> 2 Conference paper 86778
#> 3          General   932
#> 4    Journal paper 15820
#> 5            Media     9
#> 6            Other    21
#> 7     Presentation   265
#> 8         Standard    95
summary_by_publisher(result)
#> # A tibble: 22 x 2
#>                                                     name value
#>                                                    <chr> <dbl>
#>  1                          American Petroleum Institute   676
#>  2                   American Rock Mechanics Association  3851
#>  3                  American Society of Safety Engineers  1097
#>  4                                             BHR Group   221
#>  5               Carbon Management Technology Conference    82
#>  6         International Petroleum Technology Conference  1774
#>  7              International Society for Rock Mechanics  3975
#>  8 International Society of Offshore and Polar Engineers  7408
#>  9                                    NACE International  7708
#> 10                 National Energy Technology Laboratory    21
#> # ... with 12 more rows
summary_by_dates(result)
#> # A tibble: 103 x 2
#>          name value
#>         <chr> <dbl>
#>  1 Since 2017  3537
#>  2 Since 2016  8685
#>  3 Since 2015 14259
#>  4 Since 2014 19538
#>  5 Since 2013 24208
#>  6 Since 2012 28705
#>  7 Since 2011 32773
#>  8 Since 2010 36988
#>  9 Since 2009 40477
#> 10 Since 2008 43852
#> # ... with 93 more rows
summary_by_publications(result)
#> # A tibble: 823 x 2
#>                                                                 name value
#>                                                                <chr> <dbl>
#>  1                                                10th ISRM Congress   109
#>  2           10th North American Conference on Multiphase Technology    20
#>  3                                     10th World Petroleum Congress    82
#>  4                                                11th ISRM Congress   123
#>  5                                     11th World Petroleum Congress    74
#>  6                                                12th ISRM Congress   196
#>  7 12th International Conference on Multiphase Production Technology    31
#>  8                                     12th World Petroleum Congress    54
#>  9                13th ISRM International Congress of Rock Mechanics   228
#> 10 13th International Conference on Multiphase Production Technology    25
#> # ... with 813 more rows
```
